// Vitest Snapshot v1, https://vitest.dev/guide/snapshot.html

exports[`ExperienceItem > renders properly 1`] = `
"<div class=\\"columns\\">
  <div class=\\"column is-4\\">
    <p class=\\"is-size-5 has-text-weight-bold has-text-primary\\" data-label=\\"ExperienceCompanyEntreprise\\">Entreprise</p>
    <p>February 2020 - Actuellement
      <!--v-if-->
    </p><span class=\\"\\"><svg class=\\"svg-inline--fa fa-map-marker-alt\\" aria-hidden=\\"true\\" focusable=\\"false\\" data-prefix=\\"fas\\" data-icon=\\"map-marker-alt\\" role=\\"img\\" xmlns=\\"http://www.w3.org/2000/svg\\" viewBox=\\"0 0 384 512\\"><path class=\\"\\" fill=\\"currentColor\\" d=\\"M215.7 499.2C267 435 384 279.4 384 192C384 86 298 0 192 0S0 86 0 192c0 87.4 117 243 168.3 307.2c12.3 15.3 35.1 15.3 47.4 0zM192 128a64 64 0 1 1 0 128 64 64 0 1 1 0-128z\\"></path></svg><span style=\\"padding-left: 0.1rem;\\" class=\\"has-text-weight-bold\\">Marseille, France</span></span>
  </div>
  <div class=\\"column is-8\\">
    <p class=\\"is-size-5 has-text-weight-bold\\">Travail</p>
    <div class=\\"content has-text-justified\\">
      <ul>
        <li>Une tâche</li>
        <li>Une tâche 2</li>
      </ul>
    </div>
  </div>
</div>"
`;
